<?xml version="1.0" encoding="utf-8"?>
<!-- Generator: Adobe Illustrator 24.1.0, SVG Export Plug-In . SVG Version: 6.00 Build 0)  -->
<svg version="1.1" id="Layer_1" xmlns="http://www.w3.org/2000/svg" xmlns:xlink="http://www.w3.org/1999/xlink" x="0px" y="0px"
	 viewBox="0 0 33.3 50" style="enable-background:new 0 0 33.3 50;" xml:space="preserve">
<style type="text/css">
	.st0{fill:#BC282E;}
</style>
<g>
	<g>
		<path class="st0" d="M16.7,0C7.5,0,0,7.5,0,16.7c0,2.8,0.7,5.5,2,7.9l13.8,24.9c0.2,0.3,0.5,0.5,0.9,0.5c0.4,0,0.7-0.2,0.9-0.5
			l13.8-24.9c1.3-2.4,2-5.2,2-7.9C33.3,7.5,25.9,0,16.7,0z M16.7,25c-4.6,0-8.3-3.7-8.3-8.3s3.7-8.3,8.3-8.3s8.3,3.7,8.3,8.3
			S21.3,25,16.7,25z"/>
	</g>
</g>
</svg>
